digraph "CFG for 'main' function" {
	label="CFG for 'main' function";

	Node0x55e8d0008f60 [shape=record,label="{%2:\l  %3 = alloca %class.LogScope, align 8\l  %4 = bitcast %class.LogScope* %3 to i8*\l  call void @llvm.lifetime.start.p0i8(i64 32, i8* nonnull %4) #2\l  call void @_ZN8LogScopeC2EPKc(%class.LogScope* nonnull %3, i8* getelementptr\l... inbounds ([5 x i8], [5 x i8]* @.str.5, i64 0, i64 0)) #2\l  %5 = icmp sgt i32 %0, 1\l  br i1 %5, label %6, label %19\l|{<s0>T|<s1>F}}"];
	Node0x55e8d0008f60:s0 -> Node0x55e8d0009590;
	Node0x55e8d0008f60:s1 -> Node0x55e8d00095e0;
	Node0x55e8d0009590 [shape=record,label="{%6:\l\l  %7 = getelementptr inbounds i8*, i8** %1, i64 1\l  %8 = load i8*, i8** %7, align 8, !tbaa !2\l  %9 = call i64 @strtol(i8* nocapture nonnull %8, i8** null, i32 10) #2\l  %10 = trunc i64 %9 to i32\l  %11 = invoke i32 @_Z3sumii(i32 %10, i32 0)\l          to label %12 unwind label %13\l}"];
	Node0x55e8d0009590 -> Node0x55e8d0009c50;
	Node0x55e8d0009590 -> Node0x55e8d0009ce0;
	Node0x55e8d0009c50 [shape=record,label="{%12:\l\l  call void @_Z12print_resultii(i32 %10, i32 %11) #2\l  br label %19\l}"];
	Node0x55e8d0009c50 -> Node0x55e8d00095e0;
	Node0x55e8d0009ce0 [shape=record,label="{%13:\l\l  %14 = landingpad \{ i8*, i32 \}\l          catch i8* null\l  %15 = extractvalue \{ i8*, i32 \} %14, 0\l  %16 = call i8* @__cxa_begin_catch(i8* %15) #2\l  call void @_Z19print_error_messagev() #2\l  invoke void @__cxa_end_catch()\l          to label %19 unwind label %17\l}"];
	Node0x55e8d0009ce0 -> Node0x55e8d00095e0;
	Node0x55e8d0009ce0 -> Node0x55e8d000a2d0;
	Node0x55e8d000a2d0 [shape=record,label="{%17:\l\l  %18 = landingpad \{ i8*, i32 \}\l          cleanup\l  call void @_ZN8LogScopeD2Ev(%class.LogScope* nonnull %3) #2\l  call void @llvm.lifetime.end.p0i8(i64 32, i8* nonnull %4) #2\l  resume \{ i8*, i32 \} %18\l}"];
	Node0x55e8d00095e0 [shape=record,label="{%19:\l\l  call void @_ZN8LogScopeD2Ev(%class.LogScope* nonnull %3) #2\l  call void @llvm.lifetime.end.p0i8(i64 32, i8* nonnull %4) #2\l  ret i32 0\l}"];
}
