digraph "CFG for '_Z12print_resultii' function" {
	label="CFG for '_Z12print_resultii' function";

	Node0x564963f1d7a0 [shape=record,label="{%2:\l  %3 = invoke dereferenceable(272) %\"class.std::basic_ostream\"*\l... @_ZSt16__ostream_insertIcSt11char_traitsIcEERSt13basic_ostreamIT_T0_ES6_PKS3_l\l...(%\"class.std::basic_ostream\"* nonnull dereferenceable(272) @_ZSt4cout, i8*\l... nonnull getelementptr inbounds ([19 x i8], [19 x i8]* @.str.2, i64 0, i64 0),\l... i64 18)\l          to label %4 unwind label %44\l}"];
	Node0x564963f1d7a0 -> Node0x564963f1d940;
	Node0x564963f1d7a0 -> Node0x564963f1d990;
	Node0x564963f1d940 [shape=record,label="{%4:\l\l  %5 = invoke dereferenceable(272) %\"class.std::basic_ostream\"*\l... @_ZNSolsEi(%\"class.std::basic_ostream\"* nonnull @_ZSt4cout, i32 %0)\l          to label %6 unwind label %44\l}"];
	Node0x564963f1d940 -> Node0x564963f1dbd0;
	Node0x564963f1d940 -> Node0x564963f1d990;
	Node0x564963f1dbd0 [shape=record,label="{%6:\l\l  %7 = invoke dereferenceable(272) %\"class.std::basic_ostream\"*\l... @_ZSt16__ostream_insertIcSt11char_traitsIcEERSt13basic_ostreamIT_T0_ES6_PKS3_l\l...(%\"class.std::basic_ostream\"* nonnull dereferenceable(272) %5, i8* nonnull\l... getelementptr inbounds ([5 x i8], [5 x i8]* @.str.3, i64 0, i64 0), i64 4)\l          to label %8 unwind label %44\l}"];
	Node0x564963f1dbd0 -> Node0x564963f1e6f0;
	Node0x564963f1dbd0 -> Node0x564963f1d990;
	Node0x564963f1e6f0 [shape=record,label="{%8:\l\l  %9 = invoke dereferenceable(272) %\"class.std::basic_ostream\"*\l... @_ZNSolsEi(%\"class.std::basic_ostream\"* nonnull %5, i32 %1)\l          to label %10 unwind label %44\l}"];
	Node0x564963f1e6f0 -> Node0x564963f1db80;
	Node0x564963f1e6f0 -> Node0x564963f1d990;
	Node0x564963f1db80 [shape=record,label="{%10:\l\l  %11 = bitcast %\"class.std::basic_ostream\"* %9 to i8**\l  %12 = load i8*, i8** %11, align 8, !tbaa !2\l  %13 = getelementptr i8, i8* %12, i64 -24\l  %14 = bitcast i8* %13 to i64*\l  %15 = load i64, i64* %14, align 8\l  %16 = bitcast %\"class.std::basic_ostream\"* %9 to i8*\l  %17 = getelementptr inbounds i8, i8* %16, i64 %15\l  %18 = getelementptr inbounds i8, i8* %17, i64 240\l  %19 = bitcast i8* %18 to %\"class.std::ctype\"**\l  %20 = load %\"class.std::ctype\"*, %\"class.std::ctype\"** %19, align 8, !tbaa !5\l  %21 = icmp eq %\"class.std::ctype\"* %20, null\l  br i1 %21, label %22, label %24\l|{<s0>T|<s1>F}}"];
	Node0x564963f1db80:s0 -> Node0x564963f1f490;
	Node0x564963f1db80:s1 -> Node0x564963f1f4e0;
	Node0x564963f1f490 [shape=record,label="{%22:\l\l  invoke void @_ZSt16__throw_bad_castv() #11\l          to label %23 unwind label %44\l}"];
	Node0x564963f1f490 -> Node0x564963f1f570;
	Node0x564963f1f490 -> Node0x564963f1d990;
	Node0x564963f1f570 [shape=record,label="{%23:\l\l  unreachable\l}"];
	Node0x564963f1f4e0 [shape=record,label="{%24:\l\l  %25 = getelementptr inbounds %\"class.std::ctype\", %\"class.std::ctype\"* %20,\l... i64 0, i32 8\l  %26 = load i8, i8* %25, align 8, !tbaa !10\l  %27 = icmp eq i8 %26, 0\l  br i1 %27, label %31, label %28\l|{<s0>T|<s1>F}}"];
	Node0x564963f1f4e0:s0 -> Node0x564963f1fe30;
	Node0x564963f1f4e0:s1 -> Node0x564963f1fe80;
	Node0x564963f1fe80 [shape=record,label="{%28:\l\l  %29 = getelementptr inbounds %\"class.std::ctype\", %\"class.std::ctype\"* %20,\l... i64 0, i32 9, i64 10\l  %30 = load i8, i8* %29, align 1, !tbaa !12\l  br label %38\l}"];
	Node0x564963f1fe80 -> Node0x564963f200b0;
	Node0x564963f1fe30 [shape=record,label="{%31:\l\l  invoke void @_ZNKSt5ctypeIcE13_M_widen_initEv(%\"class.std::ctype\"* nonnull\l... %20)\l          to label %32 unwind label %44\l}"];
	Node0x564963f1fe30 -> Node0x564963f20160;
	Node0x564963f1fe30 -> Node0x564963f1d990;
	Node0x564963f20160 [shape=record,label="{%32:\l\l  %33 = bitcast %\"class.std::ctype\"* %20 to i8 (%\"class.std::ctype\"*, i8)***\l  %34 = load i8 (%\"class.std::ctype\"*, i8)**, i8 (%\"class.std::ctype\"*, i8)***\l... %33, align 8, !tbaa !2\l  %35 = getelementptr inbounds i8 (%\"class.std::ctype\"*, i8)*, i8\l... (%\"class.std::ctype\"*, i8)** %34, i64 6\l  %36 = load i8 (%\"class.std::ctype\"*, i8)*, i8 (%\"class.std::ctype\"*, i8)**\l... %35, align 8\l  %37 = invoke signext i8 %36(%\"class.std::ctype\"* nonnull %20, i8 signext 10)\l          to label %38 unwind label %44\l}"];
	Node0x564963f20160 -> Node0x564963f200b0;
	Node0x564963f20160 -> Node0x564963f1d990;
	Node0x564963f200b0 [shape=record,label="{%38:\l\l  %39 = phi i8 [ %30, %28 ], [ %37, %32 ]\l  %40 = invoke dereferenceable(272) %\"class.std::basic_ostream\"*\l... @_ZNSo3putEc(%\"class.std::basic_ostream\"* nonnull %9, i8 signext %39)\l          to label %41 unwind label %44\l}"];
	Node0x564963f200b0 -> Node0x564963f20630;
	Node0x564963f200b0 -> Node0x564963f1d990;
	Node0x564963f20630 [shape=record,label="{%41:\l\l  %42 = invoke dereferenceable(272) %\"class.std::basic_ostream\"*\l... @_ZNSo5flushEv(%\"class.std::basic_ostream\"* nonnull %40)\l          to label %43 unwind label %44\l}"];
	Node0x564963f20630 -> Node0x564963f207a0;
	Node0x564963f20630 -> Node0x564963f1d990;
	Node0x564963f207a0 [shape=record,label="{%43:\l\l  ret void\l}"];
	Node0x564963f1d990 [shape=record,label="{%44:\l\l  %45 = landingpad \{ i8*, i32 \}\l          catch i8* null\l  %46 = extractvalue \{ i8*, i32 \} %45, 0\l  tail call void @__clang_call_terminate(i8* %46) #12\l  unreachable\l}"];
}
